<?xml version="1.0" encoding="UTF-8" standalone="no"?>
<svg
   xmlns:dc="http://purl.org/dc/elements/1.1/"
   xmlns:cc="http://creativecommons.org/ns#"
   xmlns:rdf="http://www.w3.org/1999/02/22-rdf-syntax-ns#"
   xmlns:svg="http://www.w3.org/2000/svg"
   xmlns="http://www.w3.org/2000/svg"
   xmlns:xlink="http://www.w3.org/1999/xlink"
   xmlns:sodipodi="http://sodipodi.sourceforge.net/DTD/sodipodi-0.dtd"
   xmlns:inkscape="http://www.inkscape.org/namespaces/inkscape"
   id="b4e9d833-dfac-4889-b0f2-073e524f4cae"
   data-name="Layer 1"
   width="773.11417"
   height="610.8036"
   viewBox="0 0 773.11417 610.8036"
   version="1.1"
   sodipodi:docname="home.inkscape.svg"
   inkscape:version="1.0.2 (e86c870879, 2021-01-15)">
  <metadata
     id="metadata71">
    <rdf:RDF>
      <cc:Work
         rdf:about="">
        <dc:format>image/svg+xml</dc:format>
        <dc:type
           rdf:resource="http://purl.org/dc/dcmitype/StillImage" />
        <dc:title></dc:title>
      </cc:Work>
    </rdf:RDF>
  </metadata>
  <defs
     id="defs69" />
  <sodipodi:namedview
     pagecolor="#ffffff"
     bordercolor="#666666"
     borderopacity="1"
     objecttolerance="10"
     gridtolerance="10"
     guidetolerance="10"
     inkscape:pageopacity="0"
     inkscape:pageshadow="2"
     inkscape:window-width="2059"
     inkscape:window-height="1097"
     id="namedview67"
     showgrid="true"
     inkscape:zoom="1.9842402"
     inkscape:cx="433.27298"
     inkscape:cy="357.54867"
     inkscape:window-x="23"
     inkscape:window-y="15"
     inkscape:window-maximized="0"
     inkscape:current-layer="b4e9d833-dfac-4889-b0f2-073e524f4cae">
    <inkscape:grid
       type="xygrid"
       id="grid1277" />
  </sodipodi:namedview>
  <g
     id="g1285">
    <rect
       style="fill:#336699;fill-opacity:1;stroke:none;stroke-width:12;stroke-linecap:butt;stroke-linejoin:miter;stroke-miterlimit:4;stroke-dasharray:none;stroke-opacity:1;paint-order:normal"
       id="rect1279"
       width="460"
       height="225"
       x="310"
       y="0" />
    <rect
       style="fill:#ffffff;fill-opacity:1;stroke:none;stroke-width:12.1356;stroke-linecap:butt;stroke-linejoin:miter;stroke-miterlimit:4;stroke-dasharray:none;stroke-opacity:1;paint-order:normal"
       id="screen1"
       width="450"
       height="195"
       x="315"
       y="25" />
    <g
       id="g1261-7-6"
       transform="matrix(3,0,0,1,-961.92114,-36.277088)">
      <a
         xlink:href="file:///home/craig/src/gitlab.com/craig0990/craig0990.gitlab.io/src/overrides/posts"
         id="a952-3-3">
        <rect
           x="425.64038"
           y="61.277088"
           width="150"
           height="35"
           fill="#336699"
           id="rect10-6-2"
           style="fill:#336699;fill-opacity:1" />
      </a>
    </g>
  </g>
  <circle
     id="b9ed5a45-8896-4ed9-86b4-15f853c9a185"
     data-name="Ellipse 90"
     cx="323.91285"
     cy="11.58218"
     r="3.65074"
     fill="#fff" />
  <circle
     id="a9233a38-f8ba-48e0-88f3-496fd4836d40"
     data-name="Ellipse 91"
     cx="337.76985"
     cy="11.58218"
     r="3.65074"
     fill="#fff" />
  <circle
     id="aa82180f-a6a9-4f5f-82fc-e73106f4ad92"
     data-name="Ellipse 92"
     cx="351.62748"
     cy="11.58218"
     r="3.65074"
     fill="#fff" />
  <path
     d="M434.6459,511.69953a17.86664,17.86664,0,0,0-19.78976-17.86231,17.20233,17.20233,0,0,0-2.34789.43277l-60.46411-51.82742,3.61319-19.47549-29.8018-9.65812-8.9854,31.2107a18.10285,18.10285,0,0,0,7.6802,20.20409l74.38136,47.04492a17.0684,17.0684,0,0,0,.09142,1.75175,17.86684,17.86684,0,0,0,21.691,15.50179,17.38164,17.38164,0,0,0,2.10507-.60774A17.92013,17.92013,0,0,0,434.6459,511.69953Z"
     transform="translate(-213.44291 -144.5982)"
     fill="#9f616a"
     id="path16"
     style="fill:#feb8b8;fill-opacity:1" />
  <path
     id="path18"
     style="fill:#3f3d56;fill-opacity:1"
     d="m 70.855469,427.20898 c -17.615688,-0.63108 -26.489983,22.71041 -16.193742,35.64135 7.948297,11.34205 22.516291,7.53217 34.255342,8.20045 15.218401,0 30.436801,0 45.655201,0 0,38.29948 0,76.59896 0,114.89844 -21.38256,2.10024 -42.786399,8.38739 -60.481088,20.87428 8.110121,6.56121 24.100147,1.2293 35.326068,2.72821 33.391,-0.43967 66.79299,0.14796 100.17641,0.16159 13.09421,-3.8262 -12.62141,-12.13964 -18.20007,-15.1298 -11.44628,-4.43506 -23.50757,-7.23296 -35.71195,-8.49552 0,-38.3457 0,-76.69141 0,-115.03711 21.9755,-0.30669 44.02154,0.62806 65.95225,-0.49391 17.34731,-3.52298 21.41608,-29.31844 7.55166,-39.28734 -29.01207,-0.76144 -58.06544,-1.31023 -86.95835,-4.12537 -23.78801,0.13966 -47.581531,0.03 -71.371731,0.0647 z" />
  <path
     id="polygon24"
     style="fill:#feb8b8;fill-opacity:1"
     d="m 213.09375,538.28125 c -9.79362,10e-4 -19.58724,0.002 -29.38086,0.002 0.001,17.21094 0.003,34.42188 0.004,51.63282 10.96549,-0.002 21.93099,5.8e-4 32.89648,-0.002 3.1569,-17.21094 6.3138,-34.42187 9.4707,-51.63281 -4.33011,-10e-6 -8.66021,10e-6 -12.99032,-10e-6 z" />
  <path
     id="path26"
     style="fill:#2f2e41;fill-opacity:1"
     d="m 217.8418,583.41406 c -13.06836,8.9e-4 -26.13672,0.002 -39.20508,0.002 6.5e-4,8.59896 0.001,17.19791 0.002,25.79687 25.72656,2.5e-4 51.45313,-0.002 77.17969,-0.002 0.55756,-11.42001 -7.79282,-22.50781 -18.94446,-25.08088 -6.00425,-1.222 -12.16473,-0.57149 -18.25031,-0.716 -0.26061,10e-6 -0.52123,-10e-6 -0.78184,10e-6 z" />
  <path
     id="path28"
     style="fill:#315a8d;fill-opacity:1"
     d="m 90.25,374.23828 c -2.503857,6.95077 -11.897317,7.37637 -10.924591,17.1423 -1.666718,11.59543 2.136344,23.69388 8.864509,33.07836 10.420612,11.17678 26.523852,13.06195 40.083332,18.49951 25.39766,8.35837 51.18011,15.46791 76.91968,22.67999 7.00975,7.10253 -3.61414,16.31025 -5.21787,24.04971 -9.85723,22.13544 -19.82321,44.22319 -29.46857,66.45229 -0.0393,13.9495 18.59211,7.95931 27.63168,10.5053 6.51141,2.03331 12.24261,-1.50586 15.99872,-4.78618 13.35452,4.06503 14.94755,-12.16577 19.68235,-20.47854 11.33734,-25.5058 23.01271,-50.88183 33.87161,-76.58766 4.98428,-15.90285 -4.54452,-34.02664 -19.92056,-39.94659 -27.33489,-14.6579 -54.66978,-29.31581 -82.00467,-43.97372 -25.18088,-2.10731 -50.35465,-4.30112 -75.51562,-6.63477 z" />
  <path
     id="path36"
     d="m 137.07454,381.56437 c 6.8726,1.00965 13.28756,4.53466 20.25528,5.52561 6.10444,2.3444 17.9733,-1.11149 11.82362,-9.13652 -8.1932,-21.14627 -11.73052,-43.80753 -11.96868,-66.41742 -0.41346,-16.82106 -1.33976,-34.84751 -10.92248,-49.31263 -5.66318,-8.00096 -14.33444,-14.33593 -24.05708,-16.07962 -11.74008,-0.52591 -23.53472,-1.3212 -35.24075,-1.67895 -16.44158,7.73948 -26.32546,26.91622 -23.08923,44.79783 -0.18803,22.02496 9.18778,42.42615 14.0131,63.52392 2.01206,8.68837 1.99045,17.79414 -0.38584,26.39048 -0.54794,4.56447 3.84806,9.77713 8.63723,8.21826 15.14817,-1.96524 30.30595,-4.15344 45.44814,-5.97967 2.15868,0.45672 4.49388,-0.0312 6.28909,-1.31405 -0.26747,0.48759 -0.53493,0.97517 -0.8024,1.46276 z"
     style="fill:#bb0c00;fill-opacity:1" />
  <circle
     cx="99.20882"
     cy="190.99814"
     r="39.88209"
     fill="#9f616a"
     id="circle38"
     style="fill:#feb8b8;fill-opacity:1" />
  <path
     id="path40"
     style="fill:#eab63b;fill-opacity:1"
     d="m 86.50543,227.60485 c 4.218266,-4.17318 4.040852,-10.49384 5.112167,-15.92366 -0.46983,-7.0649 -8.232145,-12.04648 -6.590433,-19.48918 0.371152,-5.78029 8.428797,-5.52904 10.657135,-3.37786 0.882955,-5.14039 4.512341,-9.427 9.328451,-11.33721 10.23994,-4.45415 22.50861,-0.006 32.18413,-6.31356 5.90973,-3.21496 8.60462,-12.05477 3.72787,-17.3041 -5.90671,-7.11225 -15.6398,-8.28815 -23.80641,-11.40946 -12.61062,-3.98936 -26.916519,-5.62273 -39.228314,0.26078 -17.979078,7.7377 -30.474533,28.07453 -26.682412,47.69886 2.706706,15.70942 14.682865,29.01711 29.542909,34.39907 1.918302,0.93211 3.836606,1.86421 5.754907,2.79632 z" />
  <path
     d="M509.09721,436.33656l4.57346,27.15606a1.67186,1.67186,0,0,1-.09645.89874l-35.88045,89.65335a1.67163,1.67163,0,0,1-3.22212-.55063l-1.51993-36.02744a1.67151,1.67151,0,0,1,.12149-.69977l32.82692-80.782a1.67164,1.67164,0,0,1,3.19708.35168Z"
     transform="translate(-213.44291 -144.5982)"
     fill="#3f3d56"
     id="path42" />
  <polygon
     points="293.114 293.823 297.46 317.153 265.619 398.964 261.485 372.647 293.114 293.823"
     fill="#336699"
     id="polygon44" />
  <path
     d="M367.24714,553.62768c.78342,3.05836,103.64017,6.36858,104.70682,5.44356a21.67414,21.67414,0,0,0,2.47407-3.82766c1.07778-1.92515,2.07587-3.856,2.07587-3.856l-1.6905-32.52915L373.49208,508.0306s-4.48257,27.14579-5.88985,39.617A29.957,29.957,0,0,0,367.24714,553.62768Z"
     transform="translate(-213.44291 -144.5982)"
     fill="#3f3d56"
     id="path46" />
  <polygon
     points="248.114 377.702 248.123 405.727 203.309 402.541 205.292 374.657 248.114 377.702"
     opacity="0.1"
     style="isolation:isolate"
     id="polygon48" />
  <polygon
     points="189.717 382.557 189.988 382.523 187.872 394.437 162.975 392.667 163.825 380.716 189.717 382.557"
     opacity="0.1"
     style="isolation:isolate"
     id="polygon50" />
  <path
     d="M367.24714,553.62768c.78342,3.05836,103.64017,6.36858,104.70682,5.44356a21.67414,21.67414,0,0,0,2.47407-3.82766l-106.8258-7.596A29.957,29.957,0,0,0,367.24714,553.62768Z"
     transform="translate(-213.44291 -144.5982)"
     opacity="0.1"
     style="isolation:isolate"
     id="path52" />
  <path
     d="M325.94633,505.05131l86.76393,16.192a17.07827,17.07827,0,0,0,.73363,1.59338,17.90571,17.90571,0,0,0,11.49146,8.97255,17.72,17.72,0,0,0,14.39865-2.60867,17.8638,17.8638,0,0,0-18.475-30.51175,17.16787,17.16787,0,0,0-2.02,1.27194l-75.361-25.744-3.85719-19.42893L308.36136,456.856l3.239,32.56972A17.76744,17.76744,0,0,0,325.94633,505.05131Z"
     transform="translate(-213.44291 -144.5982)"
     fill="#9f616a"
     id="path54"
     style="fill:#feb8b8;fill-opacity:1" />
  <path
     d="M307.30246,471.3831l45.42218-14.92881-10.59552-30.42282a18.135,18.135,0,0,0-20.10734-11.92359h0a18.13492,18.13492,0,0,0-15.15252,18.08864Z"
     transform="translate(-213.44291 -144.5982)"
     fill="#2f2e41"
     id="path56"
     style="fill:#bb0c00;fill-opacity:1" />
  <path
     d="M595.44291,755.4018h-381a1,1,0,1,1,0-2h381a1,1,0,0,1,0,2Z"
     transform="translate(-213.44291 -144.5982)"
     fill="#cbcbcb"
     id="floor" />
  <g
     id="g1261"
     transform="translate(-110.64038,-36.277088)"
     style="stroke:none">
    <a
       xlink:href="posts"
       style="stroke:none"
       id="a952">
      <rect
         x="425.64038"
         y="61.277088"
         width="150"
         height="35"
         fill="#336699"
         id="rect10"
         style="fill:#336699;fill-opacity:1;stroke:none" />
    </a>
    <a
       xlink:href="posts"
       style="stroke:none"
       id="a948">
      <text
         xml:space="preserve"
         style="font-style:normal;font-weight:normal;font-size:21.3333px;line-height:1.25;font-family:sans-serif;fill:#000000;fill-opacity:1;stroke:none"
         x="499.00323"
         y="83.635452"
         id="text898"><tspan
           sodipodi:role="line"
           id="tspan896"
           x="499.00323"
           y="83.635452"
           style="font-style:normal;font-variant:normal;font-weight:normal;font-stretch:normal;font-size:21.3333px;font-family:monospace;-inkscape-font-specification:monospace;text-align:center;text-anchor:middle;fill:#ffffff;fill-opacity:1;stroke:none">posts</tspan></text>
    </a>
  </g>
  <g
     id="g1268"
     transform="translate(39.359619,-79.969262)"
     style="stroke:none">
    <a
       id="a959"
       xlink:href="https://gitlab.com/users/craig0990/projects"
       target="_blank"
       transform="matrix(1,0,0,0.92940995,0,7.4097852)"
       style="stroke:none">
      <rect
         x="425.64038"
         y="104.96926"
         width="150"
         height="37.658302"
         fill="#f2f2f2"
         id="rect12"
         style="fill:#336699;fill-opacity:1;stroke:none" />
    </a>
    <a
       id="a955"
       xlink:href="https://gitlab.com/users/craig0990/projects"
       target="_blank"
       transform="translate(0,-1.2978201)"
       style="stroke:none">
      <text
         xml:space="preserve"
         style="font-style:normal;font-weight:normal;font-size:21.3333px;line-height:1.25;font-family:sans-serif;fill:#000000;fill-opacity:1;stroke:none"
         x="498.55011"
         y="131.30769"
         id="text898-3"><tspan
           sodipodi:role="line"
           id="tspan896-6"
           x="498.55011"
           y="131.30769"
           style="font-style:normal;font-variant:normal;font-weight:normal;font-stretch:normal;font-size:21.3333px;font-family:monospace;-inkscape-font-specification:monospace;text-align:center;text-anchor:middle;fill:#ffffff;fill-opacity:1;stroke:none">code</tspan></text>
    </a>
  </g>
  <g
     id="g1275"
     transform="translate(189.35962,-126.257)"
     style="stroke:none">
    <a
       id="a966"
       xlink:href="https://mastodon.technology/@craig0990"
       target="_blank"
       style="stroke:none">
      <rect
         x="425.64038"
         y="151.257"
         width="150"
         height="35"
         fill="#f2f2f2"
         id="rect14"
         style="fill:#336699;fill-opacity:1;stroke:none" />
    </a>
    <a
       id="a962"
       xlink:href="https://mastodon.technology/@craig0990"
       target="_blank"
       style="stroke:none">
      <text
         xml:space="preserve"
         style="font-style:normal;font-weight:normal;font-size:21.3333px;line-height:1.25;font-family:sans-serif;fill:#000000;fill-opacity:1;stroke:none"
         x="498.55011"
         y="175.68307"
         id="text898-3-7"><tspan
           sodipodi:role="line"
           id="tspan896-6-5"
           x="498.55011"
           y="175.68307"
           style="font-style:normal;font-variant:normal;font-weight:normal;font-stretch:normal;font-size:21.3333px;font-family:monospace;-inkscape-font-specification:monospace;text-align:center;text-anchor:middle;fill:#ffffff;fill-opacity:1;stroke:none">toots</tspan></text>
    </a>
  </g>
  <g
     id="g1538"
     transform="matrix(0.19789264,0,0,0.19789264,378.7175,97.894643)">
    <g
       id="g1285-6"
       transform="translate(430,-80)">
      <rect
         style="fill:#336699;fill-opacity:1;stroke:none;stroke-width:12;stroke-linecap:butt;stroke-linejoin:miter;stroke-miterlimit:4;stroke-dasharray:none;stroke-opacity:1;paint-order:normal"
         id="rect1279-2"
         width="459.26697"
         height="225.31952"
         x="310.73303"
         y="-0.31952578" />
      <rect
         style="fill:#ffffff;fill-opacity:1;stroke:none;stroke-width:12.1356;stroke-linecap:butt;stroke-linejoin:miter;stroke-miterlimit:4;stroke-dasharray:none;stroke-opacity:1;paint-order:normal"
         id="screen2"
         width="450"
         height="195"
         x="315"
         y="25" />
    </g>
    <circle
       id="b9ed5a45-8896-4ed9-86b4-15f853c9a185-2"
       data-name="Ellipse 90"
       cx="753.91284"
       cy="-68.417816"
       r="3.6507399"
       fill="#ffffff" />
    <circle
       id="a9233a38-f8ba-48e0-88f3-496fd4836d40-7"
       data-name="Ellipse 91"
       cx="767.76984"
       cy="-68.417816"
       r="3.6507399"
       fill="#ffffff" />
    <circle
       id="aa82180f-a6a9-4f5f-82fc-e73106f4ad92-0"
       data-name="Ellipse 92"
       cx="781.62744"
       cy="-68.417816"
       r="3.6507399"
       fill="#ffffff" />
    <path
       id="path16-9"
       style="fill:#feb8b8;fill-opacity:1"
       d="m 651.20299,287.10133 c 0.0981,-20.33214 -27.52693,-15.62467 -36.64121,-29.86218 -15.28409,-13.17369 -30.67406,-26.2239 -45.96055,-39.39478 9.91151,-16.27988 -8.45862,-29.50015 -23.406,-27.27893 -8.85457,10.84686 -16.13256,30.758 -8.87388,44.17641 11.24432,12.67241 27.93224,18.57175 41.40758,28.54172 12.58467,7.96538 25.16989,15.92989 37.75985,23.8869 -1.18856,22.40441 37.34989,23.25648 35.71421,-0.0691 z" />
    <path
       id="path18-3"
       style="fill:#3f3d56;fill-opacity:1;stroke-width:1"
       d="m 500.54404,347.21264 c -22.86152,-0.66973 -27.85424,37.00316 -5.8386,42.70951 16.93511,2.45155 34.30283,0.53768 51.43841,1.13133 5.76399,0.72656 14.41799,-1.43688 18.42445,1.04722 0,37.96149 0,75.92299 0,113.88449 -18.39084,1.97325 -53.96049,9.66002 -57.0858,22.77843 16.63502,2.9617 33.82867,-0.63415 50.72158,0.63735 27.1312,-0.0902 54.26098,0.30011 81.39198,0.31198 7.46242,-9.95855 -22.4145,-15.28112 -31.31981,-19.39285 -8.86846,-4.37211 -26.81165,0.92362 -22.59685,-13.6118 0,-35.21827 0,-70.43655 0,-105.65482 24.43973,-2.46895 51.56196,5.27704 74.26553,-4.56988 16.08308,-13.40725 5.04089,-43.15945 -17.07941,-35.63599 -36.30441,-0.32907 -72.39726,-4.92085 -108.71918,-3.62931 -11.20076,-0.007 -22.40156,-0.0221 -33.6023,-0.006 z" />
    <path
       id="polygon24-6"
       style="fill:#feb8b8;fill-opacity:1;stroke-width:0.197893"
       d="M 500.16602 188.58594 L 500.16797 198.80273 L 502.73828 198.80273 L 504.10742 198.80273 L 506.67773 198.80273 L 508.55078 188.58594 L 505.98047 188.58594 L 502.73828 188.58594 L 500.16602 188.58594 z "
       transform="matrix(5.053245,0,0,5.053245,-1913.7523,-494.68562)" />
    <path
       id="path26-2"
       style="stroke-width:0.197893;fill:#2f2e41;fill-opacity:1"
       d="M 499.16211 197.51758 L 499.16211 202.62109 L 501.73242 202.62109 L 511.86523 202.62109 L 514.43555 202.62109 L 514.43555 202.46094 A 4.9441022 4.9441022 0 0 0 509.49219 197.51758 L 507.02148 197.51758 L 506.91992 197.51758 L 501.73242 197.51758 L 499.16211 197.51758 z "
       transform="matrix(5.053245,0,0,5.053245,-1913.7523,-494.68562)" />
    <path
       id="path28-6"
       style="fill:#315a8d;fill-opacity:1;stroke-width:1"
       d="m 520.25372,294.2325 c -21.41264,16.47041 -10.33772,53.87401 14.3918,60.78806 33.00533,11.51332 66.58923,21.34466 100.32818,30.49562 4.4931,20.01089 -14.27108,35.81773 -18.47456,54.5616 -5.09171,14.83505 -30.11979,47.18606 0.8886,45.90016 21.28748,3.5698 43.51861,-4.39944 47.87256,-27.4366 9.77796,-24.98378 23.03001,-48.52479 31.91843,-73.80558 9.2132,-25.05076 -16.97602,-40.95383 -36.39806,-48.99825 -21.67151,-11.62091 -43.34303,-23.2418 -65.01454,-34.86272 -25.17982,-2.1098 -50.35253,-4.30607 -75.51241,-6.64229 z" />
    <path
       id="path36-9"
       style="stroke-width:1;fill:#bb0c00;fill-opacity:1"
       d="m 517.15461,164.37795 c -19.67851,8.6818 -27.02091,32.30585 -23.11437,52.20184 1.39759,25.19004 17.08067,48.35044 14.37404,73.78163 -6.14121,21.87067 19.3385,17.52424 32.35375,13.73548 16.76473,-4.94159 33.35386,-1.72538 49.33705,3.69305 20.62671,-2.16977 0.0337,-25.30445 0.9438,-37.45338 -5.69309,-23.75301 -1.49009,-48.68067 -7.66367,-72.26552 -4.3215,-17.30312 -19.06473,-32.97129 -37.94249,-32.35056 -9.41183,-0.79817 -18.88527,-0.40305 -28.28811,-1.34254 z" />
    <circle
       cx="529.2088"
       cy="110.99814"
       r="39.882092"
       fill="#9f616a"
       id="circle38-2"
       style="fill:#feb8b8;fill-opacity:1" />
    <path
       id="path40-0"
       style="fill:#eab63b;fill-opacity:1"
       d="m 516.50543,147.60485 c 5.7805,-7.29807 6.67514,-18.34739 0.58922,-25.6505 -5.10602,-7.00515 -0.28517,-18.06707 8.66203,-13.79811 4.74501,-17.293394 25.44711,-10.62005 38.273,-15.318723 12.83206,-3.13873 11.46795,-21.651765 -0.5502,-24.523174 -18.11941,-7.50375 -39.59363,-14.394713 -58.22644,-4.461901 -21.23606,10.541116 -31.97831,39.432718 -19.13953,60.260888 6.50435,11.74256 18.26941,18.73936 30.39192,23.49152 z" />
    <path
       d="m 725.6543,211.73836 4.57346,27.15606 a 1.67186,1.67186 0 0 1 -0.0965,0.89874 l -35.88045,89.65335 a 1.67163,1.67163 0 0 1 -3.22212,-0.55063 l -1.51993,-36.02744 a 1.67151,1.67151 0 0 1 0.12149,-0.69977 l 32.82692,-80.782 a 1.67164,1.67164 0 0 1 3.19708,0.35168 z"
       fill="#3f3d56"
       id="path42-2" />
    <polygon
       points="265.619,398.964 261.485,372.647 293.114,293.823 297.46,317.153 "
       fill="#336699"
       id="polygon44-3"
       transform="translate(430,-80)" />
    <path
       d="m 583.80423,329.02948 c 0.78342,3.05836 103.64017,6.36858 104.70682,5.44356 a 21.67414,21.67414 0 0 0 2.47407,-3.82766 c 1.07778,-1.92515 2.07587,-3.856 2.07587,-3.856 l -1.6905,-32.52915 -101.32132,-10.82783 c 0,0 -4.48257,27.14579 -5.88985,39.617 a 29.957,29.957 0 0 0 -0.35509,5.98008 z"
       fill="#3f3d56"
       id="path46-7" />
    <polygon
       points="203.309,402.541 205.292,374.657 248.114,377.702 248.123,405.727 "
       opacity="0.1"
       style="isolation:isolate"
       id="polygon48-5"
       transform="translate(430,-80)" />
    <polygon
       points="163.825,380.716 189.717,382.557 189.988,382.523 187.872,394.437 162.975,392.667 "
       opacity="0.1"
       style="isolation:isolate"
       id="polygon50-9"
       transform="translate(430,-80)" />
    <path
       d="m 583.80423,329.02948 c 0.78342,3.05836 103.64017,6.36858 104.70682,5.44356 a 21.67414,21.67414 0 0 0 2.47407,-3.82766 l -106.8258,-7.596 a 29.957,29.957 0 0 0 -0.35509,5.9801 z"
       opacity="0.1"
       style="isolation:isolate"
       id="path52-2" />
    <path
       id="path54-2"
       style="fill:#feb8b8;fill-opacity:1"
       d="m 542.50342,280.45311 c 28.92131,5.39733 57.84262,10.79467 86.76393,16.192 5.0919,15.21809 30.1237,14.11084 33.8195,-1.58363 3.99743,-12.63977 -9.76931,-27.87537 -22.60966,-21.57517 -12.8287,2.98145 -24.03077,-5.79584 -36.01612,-8.68195 -13.62678,-4.71459 -27.39334,-9.49591 -41.06107,-13.69996 -9.15524,-4.45339 -1.13585,-21.6889 -13.63593,-20.9287 -8.42805,3.47387 -29.42296,-3.81068 -23.73395,11.75005 1.64373,12.11841 -0.76794,28.13033 10.45687,36.18485 1.83484,1.14783 3.88304,1.96411 6.01643,2.34251 z" />
    <path
       d="M 812,530.8036 H 431 a 1,1 0 1 1 0,-2 h 381 a 1,1 0 0 1 0,2 z"
       fill="#cbcbcb"
       id="path58-9" />
    <g
       id="g1261-7"
       transform="matrix(3.0000105,0,0,1,-531.92562,-116.27709)">
      <a
         xlink:href="file:///home/craig/src/gitlab.com/craig0990/craig0990.gitlab.io/src/overrides/posts"
         id="a952-3">
        <rect
           x="425.64038"
           y="61.277088"
           width="150"
           height="35"
           fill="#336699"
           id="rect10-6"
           style="fill:#336699;fill-opacity:1" />
      </a>
    </g>
    <g
       id="g1275-5"
       transform="translate(619.35962,-206.257)" />
  </g>
</svg>
